{
  "basePath": "/paper-summaries-site/",
  "count": 28,
  "pageSize": 10,
  "totalPages": 3,
  "page": 1,
  "papers": [
    {
      "paperId": "2603.10775",
      "title": "Large Language Models as Annotators for Machine Translation Quality Estimation",
      "authors": "Sidi Wang, Sophie Arnoult, Amir Kamran",
      "publishedDate": "2026-03-01",
      "tags": [
        "QA",
        "Reasoning",
        "Benchmark"
      ],
      "sourceUrl": "https://arxiv.org/abs/arXiv:2603.10775",
      "summaryPath": "/paper-summaries-site/data/papers/2603.10775/summary.json",
      "metaPath": "/paper-summaries-site/data/papers/2603.10775/meta.json",
      "pagePath": "/paper-summaries-site/papers/2603.10775"
    },
    {
      "paperId": "2603.09938",
      "title": "Model Merging in the Era of Large Language Models: Methods, Applications, and Future Directions",
      "authors": "Mingyang Song & Mao Zheng",
      "publishedDate": "2026-03-01",
      "tags": [
        "Pretraining",
        "QA",
        "Benchmark"
      ],
      "sourceUrl": "https://arxiv.org/abs/arXiv:2603.09938",
      "summaryPath": "/paper-summaries-site/data/papers/2603.09938/summary.json",
      "metaPath": "/paper-summaries-site/data/papers/2603.09938/meta.json",
      "pagePath": "/paper-summaries-site/papers/2603.09938"
    },
    {
      "paperId": "2603.05706",
      "title": "Reasoning Models Struggle to Control their Chains of Thought",
      "authors": "Chen Yueh-Han, Robert McCarthy, Bruce W. Lee, He He, Ian Kivlichan, Bowen Baker, Micah Carroll, Tomek Korbak",
      "publishedDate": "2026-03-01",
      "tags": [
        "Reasoning",
        "Benchmark",
        "Factuality"
      ],
      "sourceUrl": "https://arxiv.org/abs/arXiv:2603.05706",
      "summaryPath": "/paper-summaries-site/data/papers/2603.05706/summary.json",
      "metaPath": "/paper-summaries-site/data/papers/2603.05706/meta.json",
      "pagePath": "/paper-summaries-site/papers/2603.05706"
    },
    {
      "paperId": "2603.05344",
      "title": "Building Effective AI Coding Agents for the Terminal: Scaffolding, Harness, Context Engineering, and Lessons Learned",
      "authors": "Nghi D. Q. Bui",
      "publishedDate": "2026-03-01",
      "tags": [
        "Agent",
        "QA",
        "Reasoning"
      ],
      "sourceUrl": "https://arxiv.org/abs/2603.05344",
      "summaryPath": "/paper-summaries-site/data/papers/2603.05344/summary.json",
      "metaPath": "/paper-summaries-site/data/papers/2603.05344/meta.json",
      "pagePath": "/paper-summaries-site/papers/2603.05344"
    },
    {
      "paperId": "2603.04816",
      "title": "Scaling Laws for Reranking in Information Retrieval",
      "authors": "Rahul Seetharaman, Aman Bansal, Hamed Zamani, Kaustubh D. Dhole",
      "publishedDate": "2026-03-01",
      "tags": [
        "RAG",
        "Benchmark",
        "QA"
      ],
      "sourceUrl": "https://arxiv.org/abs/arXiv:2603.04816",
      "summaryPath": "/paper-summaries-site/data/papers/2603.04816/summary.json",
      "metaPath": "/paper-summaries-site/data/papers/2603.04816/meta.json",
      "pagePath": "/paper-summaries-site/papers/2603.04816"
    },
    {
      "paperId": "2603.03251",
      "title": "Speculative Speculative Decoding",
      "authors": "Tanishq Kumar, Tri Dao, Avner May",
      "publishedDate": "2026-03-01",
      "tags": [
        "Large Language Models",
        "Inference Optimization",
        "Speculative Decoding",
        "Parallel Computing",
        "Algorithm"
      ],
      "sourceUrl": "https://arxiv.org/abs/2603.03251",
      "summaryPath": "/paper-summaries-site/data/papers/2603.03251/summary.json",
      "metaPath": "/paper-summaries-site/data/papers/2603.03251/meta.json",
      "pagePath": "/paper-summaries-site/papers/2603.03251"
    },
    {
      "paperId": "2603.01562",
      "title": "RubricBench: Aligning Model-Generated Rubrics with Human Standards",
      "authors": "Qiyuan Zhang, Junyi Zhou, Yufei Wang, Fuyuan Lyu, Yidong Ming, Can Xu, Qingfeng Sun, Kai Zheng, Peng Kang, Xue Liu, Chen Ma",
      "publishedDate": "2026-03-01",
      "tags": [
        "LLM Evaluation",
        "Reward Models",
        "Benchmarks",
        "AI Alignment"
      ],
      "sourceUrl": "https://arxiv.org/abs/arXiv:2603.01562",
      "summaryPath": "/paper-summaries-site/data/papers/2603.01562/summary.json",
      "metaPath": "/paper-summaries-site/data/papers/2603.01562/meta.json",
      "pagePath": "/paper-summaries-site/papers/2603.01562"
    },
    {
      "paperId": "2603.00077",
      "title": "Autorubric: A Unified Framework for Rubric-Based LLM Evaluation",
      "authors": "Delip Rao, Chris Callison-Burch",
      "publishedDate": "2026-03-01",
      "tags": [
        "QA",
        "Benchmark",
        "Reasoning"
      ],
      "sourceUrl": "https://arxiv.org/abs/2603.00077",
      "summaryPath": "/paper-summaries-site/data/papers/2603.00077/summary.json",
      "metaPath": "/paper-summaries-site/data/papers/2603.00077/meta.json",
      "pagePath": "/paper-summaries-site/papers/2603.00077"
    },
    {
      "paperId": "2602.23234",
      "title": "Scaling Search Relevance: Augmenting App Store Ranking with LLM-Generated Judgments",
      "authors": "Evangelia Christakopoulou, Vivekkumar Patel, Hemanth Velaga, Sandip Gaikwad",
      "publishedDate": "2026-02-01",
      "tags": [
        "Information Retrieval",
        "Large Language Models",
        "Search Ranking",
        "Multi-Objective Learning",
        "Data Augmentation",
        "App Store"
      ],
      "sourceUrl": "https://arxiv.org/pdf/2602.23234",
      "summaryPath": "/paper-summaries-site/data/papers/2602.23234/summary.json",
      "metaPath": "/paper-summaries-site/data/papers/2602.23234/meta.json",
      "pagePath": "/paper-summaries-site/papers/2602.23234"
    },
    {
      "paperId": "2602.23008",
      "title": "Exploratory Memory-Augmented LLM Agent via Hybrid On- and Off-Policy Optimization",
      "authors": "Zeyuan Liu, Jeonghye Kim, Xufang Luo, Dongsheng Li, Yuqing Yang",
      "publishedDate": "2026-02-01",
      "tags": [
        "Reinforcement Learning",
        "Large Language Models",
        "Exploration",
        "Memory-Augmented Agents",
        "Policy Optimization"
      ],
      "sourceUrl": "https://arxiv.org/abs/arXiv:2602.23008",
      "summaryPath": "/paper-summaries-site/data/papers/2602.23008/summary.json",
      "metaPath": "/paper-summaries-site/data/papers/2602.23008/meta.json",
      "pagePath": "/paper-summaries-site/papers/2602.23008"
    }
  ]
}
